<?xml version="1.0" encoding="utf-8"?>
<!-- Generator: Adobe Illustrator 22.1.0, SVG Export Plug-In . SVG Version: 6.00 Build 0)  -->
<svg version="1.1" id="Capa_1" xmlns="http://www.w3.org/2000/svg" xmlns:xlink="http://www.w3.org/1999/xlink" x="0px" y="0px"
	 viewBox="0 0 16 16" style="enable-background:new 0 0 16 16;" xml:space="preserve">
<style type="text/css">
	.st0{fill:none;stroke:#fff;stroke-width:0.75;stroke-linecap:round;stroke-linejoin:round;stroke-miterlimit:2.6131;}
</style>
<g id="_x37_12-_close__x2C__cross__x2C__cancel__x2C_">
	<g>
		<line class="st0" x1="15.4" y1="0.6" x2="0.6" y2="15.5"/>
		<line class="st0" x1="15.4" y1="15.5" x2="0.6" y2="0.6"/>
	</g>
</g>
<g id="Layer_1">
</g>
</svg>
